{
  "project_info": {
    "project_number": "36421463663",
    "project_id": "quickshop-vendor",
    "storage_bucket": "quickshop-vendor.appspot.com"
  },
  "client": [
    {
      "client_info": {
        "mobilesdk_app_id": "1:36421463663:android:bc1b90b00c0e75350e679a",
        "android_client_info": {
          "package_name": "com.example.QuickshopVendors"
        }
      },
      "oauth_client": [
        {
          "client_id": "36421463663-8si7371cvkb8f41thjkb9baa4rue5714.apps.googleusercontent.com",
          "client_type": 3
        }
      ],
      "api_key": [
        {
          "current_key": "AIzaSyARNn5J9nxmTOkeRGtU-ibfPrrFEh2U5vo"
        }
      ],
      "services": {
        "appinvite_service": {
          "other_platform_oauth_client": [
            {
              "client_id": "36421463663-8si7371cvkb8f41thjkb9baa4rue5714.apps.googleusercontent.com",
              "client_type": 3
            }
          ]
        }
      }
    }
  ],
  "configuration_version": "1"
}